Análisis de Factores
…
#Remover columna con año y fecha
matriz_de_diseno <- df_tipo_de_cambio_estandarizados  %>% select(-Date, -ano)
matriz_de_diseno

## # A tibble: 492 x 80
##    Algeria Argentina Australia Austria Bangladesh   Benin Brazil Cameroon
##      <dbl>     <dbl>     <dbl>   <dbl>      <dbl>   <dbl>  <dbl>    <dbl>
##  1   1.51     -0.432    -1.60  -2.32       1.18   -1.52    0.836    0.828
##  2   1.24     -0.510    -1.44  -0.913      1.05   -1.27    0.915   -0.438
##  3   0.967    -0.693    -1.15   0.157      0.922  -0.904   0.266   -0.574
##  4   0.719    -0.694    -0.671  1.06       0.906  -0.624   1.16    -0.642
##  5   0.434    -0.785    -0.285  1.28       0.654  -0.455   0.970   -0.671
##  6   0.171     0.784     0.465 -0.0314     0.481  -0.0917  0.532   -1.23 
##  7  -0.129     1.58      1.02  -1.00       0.0629  0.109   0.347   -0.104
##  8  -0.464     1.36      1.02  -0.179     -0.589   0.261  -0.755   -0.844
##  9  -0.717     0.979     1.12   0.354     -0.768   0.622  -1.44    -0.381
## 10  -0.970     0.280     0.891  0.458     -0.957   1.03   -1.79     0.744
## # ... with 482 more rows, and 72 more variables: Canada <dbl>,
## #   Chile <dbl>, `China,PR` <dbl>, Colombia <dbl>, Congo <dbl>, `Costa
## #   Rica` <dbl>, `Cote d'Ivoire` <dbl>, `Czech Rep` <dbl>, Denmark <dbl>,
## #   `Dominican Rep` <dbl>, Ecuador <dbl>, Egypt <dbl>, `El
## #   Salvador` <dbl>, EU12 <dbl>, Finland <dbl>, France <dbl>,
## #   Germany <dbl>, Ghana <dbl>, Greece <dbl>, Guatemala <dbl>,
## #   Honduras <dbl>, `Hong Kong` <dbl>, Hungary <dbl>, India <dbl>,
## #   Indonesia <dbl>, Ireland <dbl>, Israel <dbl>, Italy <dbl>,
## #   Jamaica <dbl>, Japan <dbl>, Jordan <dbl>, Kenya <dbl>, Korea <dbl>,
…
