Tarea 2
…
library(rio)
library(tidyverse)
library(MCMCpack)
library(MASS)
library(psych)

Consideren los datos de tipo de cambio/USD de la sesin 09 (est46114_s06_data.csv).

cambio <- import('est46114_s06_data.xls')
cambio <- as_tibble(cambio)
cambio <- cambio %>% dplyr::select(-Nicaragua)
cambio

## # A tibble: 492 x 80
##    Date                Canada Mexico Guatemala `El Salvador` Honduras
##    <dttm>               <dbl>  <dbl>     <dbl>         <dbl>    <dbl>
##  1 1970-01-01 00:00:00   1.11   9.38      7.53          20.2     14.4
##  2 1970-02-01 00:00:00   1.11   9.42      7.61          20.1     14.5
##  3 1970-03-01 00:00:00   1.11   9.45      7.78          20.2     14.5
##  4 1970-04-01 00:00:00   1.11   9.50      7.84          20.4     14.5
##  5 1970-05-01 00:00:00   1.12   9.51      7.74          20.5     14.5
##  6 1970-06-01 00:00:00   1.08   9.51      7.43          20.2     14.5
##  7 1970-07-01 00:00:00   1.08   9.50      7.59          20.0     14.6
##  8 1970-08-01 00:00:00   1.07   9.46      7.75          20.5     14.2
##  9 1970-09-01 00:00:00   1.07   9.49      7.76          20.5     14.7
## 10 1970-10-01 00:00:00   1.08   9.53      7.95          21.3     14.9
## #  with 482 more rows, and 74 more variables: `Costa Rica` <dbl>,
## #   Panama <dbl>, Jamaica <dbl>, `Dominican Rep` <dbl>,
## #   `Trin/Tobago` <dbl>, Colombia <dbl>, Venezuela <dbl>, Ecuador <dbl>,
## #   Peru <dbl>, Chile <dbl>, Brazil <dbl>, Paraguay <dbl>, Uruguay <dbl>,
## #   Argentina <dbl>, EU12 <dbl>, Sweden <dbl>, Norway <dbl>,
## #   Finland <dbl>, Denmark <dbl>, U.K. <dbl>, Ireland <dbl>,
## #   Luxembourg <dbl>, Netherlands <dbl>, France <dbl>, Germany <dbl>,
## #   Austria <dbl>, `Czech Rep` <dbl>, Hungary <dbl>, Switzerland <dbl>,
## #   Poland <dbl>, Russia <dbl>, Spain <dbl>, Portugal <dbl>, Italy <dbl>,
…
uno <- summary(posterior.uno)
posiciones <-  grep('Lambda+', rownames(uno$statistics))
regiones <- c(rep('Amrica',19,), rep('Europa', 21), rep('Medio Oriente', 6), 
             rep('Asia',16), rep('frica', 17))

resumen.uno <- tibble(pais=colnames(usd),
                      region = regiones,
                      media = uno$statistics[posiciones,1],
                      quant25 = uno$quantiles[posiciones,1],
                      quant975 = uno$quantiles[posiciones,5])
resumen.uno

## # A tibble: 79 x 5
##    pais          region    media  quant25 quant975
##    <chr>         <chr>     <dbl>    <dbl>    <dbl>
##  1 Canada        Amrica -0.294  -0.389    -0.196 
##  2 Mexico        Amrica  0.104   0.0107    0.197 
##  3 Guatemala     Amrica -0.0527 -0.148     0.0450
##  4 El Salvador   Amrica  0.0656 -0.0396    0.159 
##  5 Honduras      Amrica -0.0156 -0.112     0.0778
##  6 Costa Rica    Amrica  0.0810 -0.00920   0.178 
##  7 Panama        Amrica -0.0374 -0.134     0.0561
##  8 Jamaica       Amrica -0.0704 -0.169     0.0189
##  9 Dominican Rep Amrica -0.0296 -0.130     0.0593
## 10 Trin/Tobago   Amrica -0.0380 -0.128     0.0618
## #  with 69 more rows
…
dos <- summary(posterior.dos)
posiciones1 <-  grep('Lambda(.+)_1', rownames(dos$statistics))
posiciones2 <-  grep('Lambda(.+)_2', rownames(dos$statistics))

resumen.dos <- tibble(pais=colnames(usd),
                      region = regiones,
                      f1_media = dos$statistics[posiciones1,1],
                      f1_quant25 = dos$quantiles[posiciones1,1],
                      f1_quant975 = dos$quantiles[posiciones1,5],
                      f2_media = dos$statistics[posiciones2,1],
                      f2_quant25 = dos$quantiles[posiciones2,1],
                      f2_quant975 = dos$quantiles[posiciones2,5])
resumen.dos

## # A tibble: 79 x 8
##    pais  region f1_media f1_quant25 f1_quant975 f2_media f2_quant25
##    <chr> <chr>     <dbl>      <dbl>       <dbl>    <dbl>      <dbl>
##  1 Cana Amri  -0.296    -0.387       -0.202    0.0481    -0.0778
##  2 Mexi Amri   0.101     0.00779      0.201    0.0188    -0.0799
##  3 Guat Amri  -0.0531   -0.158        0.0409   0.0128    -0.0795
##  4 El S Amri   0.0671   -0.0253       0.173    0.0137    -0.0839
##  5 Hond Amri  -0.0169   -0.114        0.0779   0.0494    -0.0454
##  6 Cost Amri   0.0790   -0.0199       0.179   -0.0272    -0.132 
##  7 Pana Amri  -0.0348   -0.130        0.0664  -0.0241    -0.123 
##  8 Jama Amri  -0.0681   -0.171        0.0283  -0.0280    -0.134 
##  9 Domi Amri  -0.0289   -0.117        0.0693  -0.0155    -0.113 
## 10 Trin Amri  -0.0373   -0.133        0.0509  -0.0213    -0.118 
## #  with 69 more rows, and 1 more variable: f2_quant975 <dbl>
…
