Tarea 04 - Modelos de Factores y DIC
…
paises_de_interes <- names(data)[-1]

lista_paises_estandarizados <- lapply(paises_de_interes, tipo_de_cambio_pais_estandarizado, x = data) 

## Warning: `data_frame()` is deprecated, use `tibble()`.
## This warning is displayed once per session.

names(lista_paises_estandarizados) <- names(data)[-1]

df_estandar <- bind_rows(lista_paises_estandarizados, .id = "column_label") %>% 
  spread(column_label,tc_estandarizado)

df_estandar

## # A tibble: 492 x 82
##    Date                  ano Algeria Argentina Australia Austria Bangladesh
##    <dttm>              <dbl>   <dbl>     <dbl>     <dbl>   <dbl>      <dbl>
##  1 1970-01-01 00:00:00  1970   1.51     -0.432    -1.60  -2.32       1.18  
##  2 1970-02-01 00:00:00  1970   1.24     -0.510    -1.44  -0.913      1.05  
##  3 1970-03-01 00:00:00  1970   0.967    -0.693    -1.15   0.157      0.922 
##  4 1970-04-01 00:00:00  1970   0.719    -0.694    -0.671  1.06       0.906 
##  5 1970-05-01 00:00:00  1970   0.434    -0.785    -0.285  1.28       0.654 
##  6 1970-06-01 00:00:00  1970   0.171     0.784     0.465 -0.0314     0.481 
##  7 1970-07-01 00:00:00  1970  -0.129     1.58      1.02  -1.00       0.0629
##  8 1970-08-01 00:00:00  1970  -0.464     1.36      1.02  -0.179     -0.589 
##  9 1970-09-01 00:00:00  1970  -0.717     0.979     1.12   0.354     -0.768 
## 10 1970-10-01 00:00:00  1970  -0.970     0.280     0.891  0.458     -0.957 
## #  with 482 more rows, and 75 more variables: Benin <dbl>, Brazil <dbl>,
## #   Cameroon <dbl>, Canada <dbl>, Chile <dbl>, `China,PR` <dbl>,
## #   Colombia <dbl>, Congo <dbl>, `Costa Rica` <dbl>, `Cote
## #   d'Ivoire` <dbl>, `Czech Rep` <dbl>, Denmark <dbl>, `Dominican
## #   Rep` <dbl>, Ecuador <dbl>, Egypt <dbl>, `El Salvador` <dbl>,
## #   EU12 <dbl>, Finland <dbl>, France <dbl>, Germany <dbl>, Ghana <dbl>,
## #   Greece <dbl>, Guatemala <dbl>, Honduras <dbl>, `Hong Kong` <dbl>,
## #   Hungary <dbl>, India <dbl>, Indonesia <dbl>, Ireland <dbl>,
## #   Israel <dbl>, Italy <dbl>, Jamaica <dbl>, Japan <dbl>, Jordan <dbl>,
…
