Tarea 1
…
library(rio)
library(MASS)
library(tidyverse)
library(mvtnorm)
library(Matrix)

Consideren los datos de tipo de cambio USD de la sesin 06 (est46114 s06 data.csv).

cambio <- import('est46114_s06_data.xls')
cambio <- as_tibble(cambio)
cambio <- cambio %>% dplyr::select(-Nicaragua)
cambio

## # A tibble: 492 x 80
##    Date                Canada Mexico Guatemala `El Salvador` Honduras
##    <dttm>               <dbl>  <dbl>     <dbl>         <dbl>    <dbl>
##  1 1970-01-01 00:00:00   1.11   9.38      7.53          20.2     14.4
##  2 1970-02-01 00:00:00   1.11   9.42      7.61          20.1     14.5
##  3 1970-03-01 00:00:00   1.11   9.45      7.78          20.2     14.5
##  4 1970-04-01 00:00:00   1.11   9.50      7.84          20.4     14.5
##  5 1970-05-01 00:00:00   1.12   9.51      7.74          20.5     14.5
##  6 1970-06-01 00:00:00   1.08   9.51      7.43          20.2     14.5
##  7 1970-07-01 00:00:00   1.08   9.50      7.59          20.0     14.6
##  8 1970-08-01 00:00:00   1.07   9.46      7.75          20.5     14.2
##  9 1970-09-01 00:00:00   1.07   9.49      7.76          20.5     14.7
## 10 1970-10-01 00:00:00   1.08   9.53      7.95          21.3     14.9
## #  with 482 more rows, and 74 more variables: `Costa Rica` <dbl>,
## #   Panama <dbl>, Jamaica <dbl>, `Dominican Rep` <dbl>,
## #   `Trin/Tobago` <dbl>, Colombia <dbl>, Venezuela <dbl>, Ecuador <dbl>,
## #   Peru <dbl>, Chile <dbl>, Brazil <dbl>, Paraguay <dbl>, Uruguay <dbl>,
## #   Argentina <dbl>, EU12 <dbl>, Sweden <dbl>, Norway <dbl>,
## #   Finland <dbl>, Denmark <dbl>, U.K. <dbl>, Ireland <dbl>,
## #   Luxembourg <dbl>, Netherlands <dbl>, France <dbl>, Germany <dbl>,
## #   Austria <dbl>, `Czech Rep` <dbl>, Hungary <dbl>, Switzerland <dbl>,
## #   Poland <dbl>, Russia <dbl>, Spain <dbl>, Portugal <dbl>, Italy <dbl>,
…
Podemos ver algunas agrupaciones. Los pases europeos (en rojo) se encuentran mayoritamiento en el lado izquierdo del PC1, los pases americanos (azul) en el lado izquierdo, los pases asiticos (amarillo) en la parte positiva del PC2 y hay dos grupos de pases africanos, unos cerca de Amrica y un grupo pequeo en la parte inferior. Es de notar lo aislada que est China, en la parte inferior.

2. Reporten que economia tiene el mayor peso esperado en la descomposicion PCA.

as_tibble(pc_rotados) %>% 
    mutate(pais=rownames(pc_rotados)) %>% 
    dplyr::select(pais, PC1, PC2) %>% 
    arrange(desc(PC1))

## # A tibble: 79 x 3
##    pais           PC1   PC2
##    <chr>        <dbl> <dbl>
##  1 Mexico        0.02  0.06
##  2 El Salvador   0.02  0.01
##  3 Costa Rica    0.01  0   
##  4 Ecuador       0.01  0   
##  5 Uruguay       0.01  0.04
##  6 Argentina     0.01  0.02
##  7 Russia        0.01  0.02
##  8 Sierra Leone  0.01 -0.04
##  9 Honduras      0     0.02
## 10 Egypt         0     0   
## #  with 69 more rows
…
a <- tibble(pais = colnames(usd), 
       consistencia_pc1 = cp1, 
       consistencia_pc2 = cp2)

a %>% arrange((consistencia_pc1))

## # A tibble: 79 x 3
##    pais          consistencia_pc1 consistencia_pc2
##    <chr>                    <dbl>            <dbl>
##  1 Panama                  0.0167           0.0643
##  2 El Salvador             0.0169           0.0678
##  3 Canada                  0.0170           0.0674
##  4 Mexico                  0.0170           0.0674
##  5 Colombia                0.0173           0.0681
##  6 Chile                   0.0173           0.0675
##  7 Honduras                0.0174           0.0658
##  8 Uruguay                 0.0175           0.0709
##  9 Argentina               0.0176           0.0696
## 10 Dominican Rep           0.0177           0.0680
## #  with 69 more rows

a %>% arrange((consistencia_pc2))

## # A tibble: 79 x 3
##    pais          consistencia_pc1 consistencia_pc2
##    <chr>                    <dbl>            <dbl>
##  1 Panama                  0.0167           0.0643
##  2 Honduras                0.0174           0.0658
##  3 Peru                    0.0185           0.0667
##  4 Costa Rica              0.0183           0.0670
##  5 Guatemala               0.0179           0.0672
##  6 Mexico                  0.0170           0.0674
##  7 Canada                  0.0170           0.0674
##  8 Chile                   0.0173           0.0675
##  9 El Salvador             0.0169           0.0678
## 10 Dominican Rep           0.0177           0.0680
## #  with 69 more rows
…
