EST-46114 Métodos Multivariados y Datos Categóricos Trabajo Final
…
##   0%  25%  50%  75% 100% 
##  200  545  649  869 4092

La base de datos muestra diferentes tamaños de muestra para cada una de las encuestas en las base de datos. El rango intercuatílico de los tamaños de muestra está entre 869 encuestas y 545. Es preciso mencionar que hay encuestas con más de 1000 encuestas.

Esta consideración es muy relevante para nuestro proyecto, dado que en el paper se menciona que diferentes tamaños de muestra en las enuestras tienen una relación con el tamaño del error de las prediccions de la intención de voto. En ese sentido es necesario reescalar todas las encuestas para que puedan ser directamente comparables.

2. Descripción del Método de Agregación con Justificación

2.1 Preprocesamiento (reescalamiento de votos)

Como se mencionó previamente, es necesario reescalar los votos para no tener sesgo por diferentes tamaños de muestra. Para reescalar se consideraron las variables Dem_poll, Rep_poll y Undecided como número de votos, dado que la suma de estos es mayor a 100 en algunos casos, por lo tanto, no pueden considerarse como proporciones, ya que ni siquiera están considerando el número de personas que no reportaron su preferencia.

## # A tibble: 33 x 5
##    Dem_poll Rep_poll Undecided sample_size muestra_efectiva
##       <dbl>    <dbl>     <dbl>       <dbl>            <dbl>
##  1       53       39        22         750              114
##  2       52       41         9         594              102
##  3       51       46         5         859              102
##  4       92        6         3         312              101
##  5       63       34         4         304              101
##  6       34       61         6         318              101
##  7       41       53         7         308              101
##  8       51       42         8        1331              101
##  9       51       43         7        1191              101
## 10       50       43         8         569              101
## # ... with 23 more rows
…
